…
#Read file
data <- arrow::read_parquet("tests/testthat/raw_Pic2Jan_50000.parquet") |> slice(1:1000)

# Calcualte metrics
data_metrics <- moving_window_calcs_2(data)

data_metrics %>% slice(50:150)
#> # A tibble: 101 × 26
#>    time                meanX  meanY meanZ  maxx   maxy  maxz  minx   miny  minz    sdx     sdy    sdz   SMA minODBA maxODBA minVDBA maxVDBA sumODBA sumVDBA   corXY   corXZ  corYZ    skx       sky
#>    <dttm>              <dbl>  <dbl> <dbl> <dbl>  <dbl> <dbl> <dbl>  <dbl> <dbl>  <dbl>   <dbl>  <dbl> <dbl>   <dbl>   <dbl>   <dbl>   <dbl>   <dbl>   <dbl>   <dbl>   <dbl>  <dbl>  <dbl>     <dbl>
#>  1 1970-01-01 00:00:00 0.592 -0.317 0.713  0.61 -0.297 0.735 0.563 -0.328 0.688 0.0142 0.00826 0.0119  1.62    1.56    1.66   0.942    1.01    81.1    49.0 -0.0804 -0.0423 0.216  -0.237 -0.000909
#>  2 1970-01-01 00:00:00 0.592 -0.317 0.713  0.61 -0.297 0.735 0.563 -0.328 0.688 0.0144 0.00861 0.0124  1.62    1.56    1.66   0.942    1.01    81.1    49.0 -0.0143 -0.0886 0.0836 -0.254  0.0923  
#>  3 1970-01-01 00:00:00 0.593 -0.317 0.712  0.61 -0.297 0.735 0.563 -0.328 0.688 0.0138 0.00847 0.0124  1.62    1.56    1.66   0.942    1.01    81.1    49.0 -0.0732 -0.0708 0.0921 -0.228  0.0403  
#>  4 1970-01-01 00:00:00 0.594 -0.317 0.713  0.61 -0.297 0.735 0.563 -0.328 0.688 0.0131 0.00858 0.0119  1.62    1.58    1.66   0.957    1.01    81.2    49.0 -0.0514 -0.172  0.128  -0.149  0.0971  
#>  5 1970-01-01 00:00:00 0.593 -0.317 0.713  0.61 -0.297 0.735 0.563 -0.328 0.688 0.0136 0.00844 0.0119  1.62    1.58    1.66   0.957    1.01    81.1    49.0 -0.0361 -0.177  0.114  -0.195  0.0457  
#>  6 1970-01-01 00:00:00 0.592 -0.317 0.714  0.61 -0.297 0.735 0.563 -0.328 0.688 0.0142 0.00843 0.0116  1.62    1.58    1.66   0.957    1.01    81.1    49.0 -0.0433 -0.235  0.141  -0.225  0.0585  
#>  7 1970-01-01 00:00:00 0.592 -0.317 0.714  0.61 -0.297 0.735 0.563 -0.328 0.688 0.0144 0.00843 0.0116  1.62    1.58    1.66   0.957    1.01    81.1    49.0 -0.0253 -0.265  0.104  -0.240  0.0585  
#>  8 1970-01-01 00:00:00 0.592 -0.316 0.714  0.61 -0.297 0.735 0.563 -0.328 0.688 0.0143 0.00834 0.0115  1.62    1.58    1.66   0.957    1.01    81.1    49.0 -0.0559 -0.260  0.115  -0.295  0.0697  
#>  9 1970-01-01 00:00:00 0.592 -0.316 0.714  0.61 -0.297 0.735 0.563 -0.328 0.688 0.0143 0.00819 0.0115  1.62    1.58    1.66   0.957    1.01    81.1    49.0 -0.0523 -0.262  0.129  -0.295  0.0232  
#> 10 1970-01-01 00:00:00 0.592 -0.316 0.714  0.61 -0.297 0.735 0.563 -0.328 0.688 0.0141 0.00819 0.0119  1.62    1.58    1.66   0.957    1.01    81.1    49.0 -0.0622 -0.264  0.135  -0.283  0.0232  
#> # ℹ 91 more rows
#> # ℹ 1 more variable: skz <dbl>
```
…
